g                                                 ;
g                                                 ;
g                                                 ;
g                                                 ;
g                                                 ;
g                                                 ;
g                 D                               ;
g  G              GGG                             ;
g PG             GgggG                            ;
gGGG        D   GgggggG     D                     ;
ggggGGGGGGGGGGGGGGGGGGGGGGGGGGGGGGGGGGGGGGGGGGGGGG;
gggggggggggggggggggggggggggggggggggggggggggggggggg;
gggggggggggggggggggggggggggggggggggggggggggggggggg;
gggggggggggggggggggggggggggggggggggggggggggggggggg;
gggggggggggggggggggggggggggggggggggggggggggggggggg;
gggggggggggggggggggggggggggggggggggggggggggggggggg;
gggggggggggggggggggggggggggggggggggggggggggggggggg;
gggggggggggggggggggggggggggggggggggggggggggggggggg;
                                                  ;
                                                  ;
uuuuuuuuuuuuuuuuuuuuuuuuuuuuuuuuuuuuuuuuuuuuuuuuuu;